…
Most of variables were parsed as character, but let's keep them this way for now (I will parse them into appropriate type (ex. factor or double) just before modelling part).

Firstly, let's check ID's uniqueness.

``` r
chances_all %>% group_by(id) %>% filter(n() > 1) %>% count()
```

    ## # A tibble: 11,321 x 2
    ## # Groups:   id [11,321]
    ##       id     n
    ##    <int> <int>
    ##  1    23     2
    ##  2    33     2
    ##  3    44     2
    ##  4    54     2
    ##  5    56     2
    ##  6    58     2
    ##  7    61     3
    ##  8    62     2
    ##  9    65     3
    ## 10    72     2
    ## # ... with 11,311 more rows
…
